[
  {
    "type": "post",
    "url": "/promo/activate",
    "title": "",
    "name": "Activate",
    "group": "Activate",
    "description": "<p>Активировать ключ</p>",
    "version": "0.1.0",
    "success": {
      "examples": [
        {
          "title": "Success-Response type json:",
          "content": "\tHTTP/1.1 200 OK\n            500",
          "type": "json"
        }
      ]
    },
    "parameter": {
      "examples": [
        {
          "title": "$_POST Request-Example:",
          "content": "'{\n            \"code\"  :  \"XXX\",\n            \"tariff_zone\"  :  \"1\"\n}'",
          "type": "json"
        }
      ]
    },
    "error": {
      "examples": [
        {
          "title": "Error-Response:",
          "content": "HTTP/1.1 401 Server Error\n{\n\"name\": \"Unauthorized\",\n\"message\": \"Your request was made with invalid credentials.\",\n\"code\": 0,\n\"status\": 401,\n\"type\": \"yii\\\\web\\\\UnauthorizedHttpException\"\n}",
          "type": "json"
        }
      ]
    },
    "filename": "./PromoController.php",
    "groupTitle": "Activate",
    "sampleRequest": [
      {
        "url": "http://test.loc/promo/activate"
      }
    ]
  },
  {
    "type": "post",
    "url": "/promo",
    "title": "",
    "name": "Create",
    "group": "Create",
    "description": "<p>Создать новый код</p>",
    "version": "0.1.0",
    "success": {
      "examples": [
        {
          "title": "Success-Response type json:",
          "content": "\tHTTP/1.1 200 OK\n    {\n    \"id\": 1000\n    }",
          "type": "json"
        }
      ]
    },
    "parameter": {
      "examples": [
        {
          "title": "$_POST Request-Example:",
          "content": "'{\n            \"code\"  :  \"XXX\",\n            \"date_start\"  :  \"30.01.2018\",\n            \"date_end\"  :  \"30.01.2019\",\n            \"tariff_zone\"  :  \"1\",\n            \"price\"  :  \"222\"\n}'",
          "type": "json"
        }
      ]
    },
    "error": {
      "examples": [
        {
          "title": "Error-Response:",
          "content": "HTTP/1.1 401 Server Error\n{\n\"name\": \"Unauthorized\",\n\"message\": \"Your request was made with invalid credentials.\",\n\"code\": 0,\n\"status\": 401,\n\"type\": \"yii\\\\web\\\\UnauthorizedHttpException\"\n}",
          "type": "json"
        }
      ]
    },
    "filename": "./PromoController.php",
    "groupTitle": "Create",
    "sampleRequest": [
      {
        "url": "http://test.loc/promo"
      }
    ]
  },
  {
    "type": "get",
    "url": "/promo/:id/fields=:fields",
    "title": "",
    "name": "Get",
    "group": "Get",
    "description": "<p>Получить ключ по id</p>",
    "version": "0.1.0",
    "parameter": {
      "fields": {
        "Parameter": [
          {
            "group": "Parameter",
            "type": "integer",
            "optional": false,
            "field": "id",
            "description": "<p>id кода</p>"
          },
          {
            "group": "Parameter",
            "type": "String",
            "optional": true,
            "field": "fields",
            "description": "<ul> <li>список запрашиваемых полей разделенный запятыми id,code,date_start,date_end,tariff_zone,active,price</li> </ul>"
          }
        ]
      }
    },
    "success": {
      "examples": [
        {
          "title": "Success-Response type json:",
          "content": "\tHTTP/1.1 200 OK\n\n    {\n    \"id\": 1,\n    \"code\": \"qqqq\",\n    \"date_start\": \"12.12.2018\",\n    \"date_end\": \"12.12.2018\",\n    \"tariff_zone\": \"СПБ\",\n    \"active\": \"Активно\",\n    \"price\": \"500.00\"\n    }",
          "type": "json"
        }
      ]
    },
    "error": {
      "examples": [
        {
          "title": "Error-Response:",
          "content": "HTTP/1.1 401 Server Error\n    {\n       \"name\": \"Unauthorized\",\n       \"message\": \"Your request was made with invalid credentials.\",\n       \"code\": 0,\n       \"status\": 401,\n       \"type\": \"yii\\\\web\\\\UnauthorizedHttpException\"\n    }",
          "type": "json"
        }
      ]
    },
    "filename": "./PromoController.php",
    "groupTitle": "Get",
    "sampleRequest": [
      {
        "url": "http://test.loc/promo/:id/fields=:fields"
      }
    ]
  },
  {
    "type": "get",
    "url": "/promo/get-by-code?code=:code/fields=:fields",
    "title": "",
    "name": "GET",
    "group": "Get_By_Code",
    "description": "<p>Получить ключ по коду</p>",
    "version": "0.1.0",
    "parameter": {
      "fields": {
        "Parameter": [
          {
            "group": "Parameter",
            "type": "string",
            "optional": false,
            "field": "code",
            "description": "<p>код</p>"
          },
          {
            "group": "Parameter",
            "type": "String",
            "optional": true,
            "field": "fields",
            "description": "<ul> <li>список запрашиваемых полей разделенный запятыми id,code,date_start,date_end,tariff_zone,active,price</li> </ul>"
          }
        ]
      }
    },
    "success": {
      "examples": [
        {
          "title": "Success-Response type json:",
          "content": "\tHTTP/1.1 200 OK\n\n    {\n    \"id\": 1,\n    \"code\": \"qqqq\",\n    \"date_start\": \"12.12.2018\",\n    \"date_end\": \"12.12.2018\",\n    \"tariff_zone\": \"СПБ\",\n    \"active\": \"Активно\",\n    \"price\": \"500.00\"\n    }",
          "type": "json"
        }
      ]
    },
    "error": {
      "examples": [
        {
          "title": "Error-Response:",
          "content": "HTTP/1.1 401 Server Error\n    {\n       \"name\": \"Unauthorized\",\n       \"message\": \"Your request was made with invalid credentials.\",\n       \"code\": 0,\n       \"status\": 401,\n       \"type\": \"yii\\\\web\\\\UnauthorizedHttpException\"\n    }",
          "type": "json"
        }
      ]
    },
    "filename": "./PromoController.php",
    "groupTitle": "Get_By_Code",
    "sampleRequest": [
      {
        "url": "http://test.loc/promo/get-by-code?code=:code/fields=:fields"
      }
    ]
  },
  {
    "type": "get",
    "url": "/promo?fields=:fields",
    "title": "",
    "name": "Index",
    "group": "Index",
    "description": "<p>Получить список своих ключей</p>",
    "version": "0.1.0",
    "success": {
      "examples": [
        {
          "title": "Success-Response type json:",
          "content": "\tHTTP/1.1 200 OK\n    [\n    {\n    \"id\": 1,\n    \"code\": \"qqqq\",\n    \"date_start\": \"12.12.2018\",\n    \"date_end\": \"12.12.2018\",\n    \"tariff_zone\": \"СПБ\",\n    \"active\": \"Активно\",\n    \"price\": \"500.00\"\n    },\n    {\n    \"id\": 2,\n    \"code\": \"www\",\n    \"date_start\": \"12.12.2018\",\n    \"date_end\": \"12.12.2019\",\n    \"tariff_zone\": \"СПБ\",\n    \"active\": \"Активно\",\n    \"price\": \"200.00\"\n    }\n    ]",
          "type": "json"
        }
      ]
    },
    "error": {
      "examples": [
        {
          "title": "Error-Response:",
          "content": "HTTP/1.1 401 Server Error\n    {\n       \"name\": \"Unauthorized\",\n       \"message\": \"Your request was made with invalid credentials.\",\n       \"code\": 0,\n       \"status\": 401,\n       \"type\": \"yii\\\\web\\\\UnauthorizedHttpException\"\n    }",
          "type": "json"
        }
      ]
    },
    "filename": "./PromoController.php",
    "groupTitle": "Index",
    "sampleRequest": [
      {
        "url": "http://test.loc/promo?fields=:fields"
      }
    ],
    "parameter": {
      "fields": {
        "Parameter": [
          {
            "group": "Parameter",
            "type": "String",
            "optional": true,
            "field": "fields",
            "description": "<ul> <li>список запрашиваемых полей разделенный запятыми id,code,date_start,date_end,tariff_zone,active,price</li> </ul>"
          }
        ]
      }
    }
  },
  {
    "type": "post",
    "url": "/promo/:id",
    "title": "",
    "name": "Update",
    "group": "Update",
    "description": "<p>Изменить активированный ключ</p>",
    "version": "0.1.0",
    "parameter": {
      "fields": {
        "Parameter": [
          {
            "group": "Parameter",
            "type": "integer",
            "optional": false,
            "field": "id",
            "description": "<p>id кода</p>"
          }
        ]
      },
      "examples": [
        {
          "title": "$_POST Request-Example:",
          "content": "'{\n            \"code\"  :  \"XXX\",\n            \"date_start\"  :  \"30.01.2018\",\n            \"date_end\"  :  \"30.01.2019\",\n            \"tariff_zone\"  :  \"1\",\n            \"price\"  :  \"222\"\n}'",
          "type": "json"
        }
      ]
    },
    "success": {
      "examples": [
        {
          "title": "Success-Response type json:",
          "content": "\tHTTP/1.1 200 OK\n    {\n    \"id\": 1000\n    }",
          "type": "json"
        }
      ]
    },
    "error": {
      "examples": [
        {
          "title": "Error-Response:",
          "content": "HTTP/1.1 401 Server Error\n{\n\"name\": \"Unauthorized\",\n\"message\": \"Your request was made with invalid credentials.\",\n\"code\": 0,\n\"status\": 401,\n\"type\": \"yii\\\\web\\\\UnauthorizedHttpException\"\n}",
          "type": "json"
        }
      ]
    },
    "filename": "./PromoController.php",
    "groupTitle": "Update",
    "sampleRequest": [
      {
        "url": "http://test.loc/promo/:id"
      }
    ]
  },
  {
    "success": {
      "fields": {
        "Success 200": [
          {
            "group": "Success 200",
            "optional": false,
            "field": "varname1",
            "description": "<p>No type.</p>"
          },
          {
            "group": "Success 200",
            "type": "String",
            "optional": false,
            "field": "varname2",
            "description": "<p>With type.</p>"
          }
        ]
      }
    },
    "type": "",
    "url": "",
    "version": "0.0.0",
    "filename": "./doc/main.js",
    "group": "_var_www_test_api_controllers_doc_main_js",
    "groupTitle": "_var_www_test_api_controllers_doc_main_js",
    "name": ""
  }
]
